%YAML 1.1
%TAG !u! tag:unity3d.com,2011:
--- !u!74 &7400000
AnimationClip:
  m_ObjectHideFlags: 0
  m_CorrespondingSourceObject: {fileID: 0}
  m_PrefabInstance: {fileID: 0}
  m_PrefabAsset: {fileID: 0}
  m_Name: DieSheet
  serializedVersion: 6
  m_Legacy: 0
  m_Compressed: 0
  m_UseHighQualityCurve: 1
  m_RotationCurves: []
  m_CompressedRotationCurves: []
  m_EulerCurves: []
  m_PositionCurves: []
  m_ScaleCurves: []
  m_FloatCurves: []
  m_PPtrCurves:
  - curve:
    - time: 0
      value: {fileID: 21300060, guid: 6eb409c569a50654ca7712f22f31422b, type: 3}
    - time: 0.016666668
      value: {fileID: 21300062, guid: 6eb409c569a50654ca7712f22f31422b, type: 3}
    attribute: m_Sprite
    path: Layers/Body
    classID: 212
    script: {fileID: 0}
  - curve:
    - time: 0
      value: {fileID: 21300060, guid: edd435eb60890604f8ff907fe44674b6, type: 3}
    - time: 0.016666668
      value: {fileID: 21300062, guid: edd435eb60890604f8ff907fe44674b6, type: 3}
    attribute: m_Sprite
    path: Layers/Armor
    classID: 212
    script: {fileID: 0}
  - curve:
    - time: 0
      value: {fileID: 21300060, guid: 79c8bae54c14a7d4fab571dbc30b95e3, type: 3}
    - time: 0.016666668
      value: {fileID: 21300062, guid: 79c8bae54c14a7d4fab571dbc30b95e3, type: 3}
    attribute: m_Sprite
    path: Layers/Hair Front
    classID: 212
    script: {fileID: 0}
  - curve:
    - time: 0
      value: {fileID: 21300060, guid: 8282e73bc91b0b54eb98de924d8e19fb, type: 3}
    - time: 0.016666668
      value: {fileID: 21300062, guid: 8282e73bc91b0b54eb98de924d8e19fb, type: 3}
    attribute: m_Sprite
    path: Layers/Hair Back
    classID: 212
    script: {fileID: 0}
  - curve:
    - time: 0
      value: {fileID: 21300060, guid: f6d5583b7823b0541926aec84a93a0ba, type: 3}
    - time: 0.016666668
      value: {fileID: 21300062, guid: f6d5583b7823b0541926aec84a93a0ba, type: 3}
    attribute: m_Sprite
    path: Layers/Weapon Front
    classID: 212
    script: {fileID: 0}
  - curve:
    - time: 0
      value: {fileID: 21300070, guid: e59c501cb7de7bb41b0b6f97a460f3a4, type: 3}
    attribute: m_Sprite
    path: Layers/Weapon Back
    classID: 212
    script: {fileID: 0}
  - curve:
    - time: 0
      value: {fileID: 21300060, guid: af113ba738e3be64c8919f6a9fe06781, type: 3}
    - time: 0.016666668
      value: {fileID: 21300062, guid: af113ba738e3be64c8919f6a9fe06781, type: 3}
    attribute: m_Sprite
    path: Layers/Eyes
    classID: 212
    script: {fileID: 0}
  m_SampleRate: 60
  m_WrapMode: 0
  m_Bounds:
    m_Center: {x: 0, y: 0, z: 0}
    m_Extent: {x: 0, y: 0, z: 0}
  m_ClipBindingConstant:
    genericBindings:
    - serializedVersion: 2
      path: 2734027763
      attribute: 0
      script: {fileID: 0}
      typeID: 212
      customType: 23
      isPPtrCurve: 1
    - serializedVersion: 2
      path: 3196441090
      attribute: 0
      script: {fileID: 0}
      typeID: 212
      customType: 23
      isPPtrCurve: 1
    - serializedVersion: 2
      path: 4265753259
      attribute: 0
      script: {fileID: 0}
      typeID: 212
      customType: 23
      isPPtrCurve: 1
    - serializedVersion: 2
      path: 3566640183
      attribute: 0
      script: {fileID: 0}
      typeID: 212
      customType: 23
      isPPtrCurve: 1
    - serializedVersion: 2
      path: 511716825
      attribute: 0
      script: {fileID: 0}
      typeID: 212
      customType: 23
      isPPtrCurve: 1
    - serializedVersion: 2
      path: 3278434365
      attribute: 0
      script: {fileID: 0}
      typeID: 212
      customType: 23
      isPPtrCurve: 1
    - serializedVersion: 2
      path: 3729247447
      attribute: 0
      script: {fileID: 0}
      typeID: 212
      customType: 23
      isPPtrCurve: 1
    pptrCurveMapping:
    - {fileID: 21300060, guid: 6eb409c569a50654ca7712f22f31422b, type: 3}
    - {fileID: 21300062, guid: 6eb409c569a50654ca7712f22f31422b, type: 3}
    - {fileID: 21300060, guid: edd435eb60890604f8ff907fe44674b6, type: 3}
    - {fileID: 21300062, guid: edd435eb60890604f8ff907fe44674b6, type: 3}
    - {fileID: 21300060, guid: 79c8bae54c14a7d4fab571dbc30b95e3, type: 3}
    - {fileID: 21300062, guid: 79c8bae54c14a7d4fab571dbc30b95e3, type: 3}
    - {fileID: 21300060, guid: 8282e73bc91b0b54eb98de924d8e19fb, type: 3}
    - {fileID: 21300062, guid: 8282e73bc91b0b54eb98de924d8e19fb, type: 3}
    - {fileID: 21300060, guid: f6d5583b7823b0541926aec84a93a0ba, type: 3}
    - {fileID: 21300062, guid: f6d5583b7823b0541926aec84a93a0ba, type: 3}
    - {fileID: 21300070, guid: e59c501cb7de7bb41b0b6f97a460f3a4, type: 3}
    - {fileID: 21300060, guid: af113ba738e3be64c8919f6a9fe06781, type: 3}
    - {fileID: 21300062, guid: af113ba738e3be64c8919f6a9fe06781, type: 3}
  m_AnimationClipSettings:
    serializedVersion: 2
    m_AdditiveReferencePoseClip: {fileID: 0}
    m_AdditiveReferencePoseTime: 0
    m_StartTime: 0
    m_StopTime: 0.033333335
    m_OrientationOffsetY: 0
    m_Level: 0
    m_CycleOffset: 0
    m_HasAdditiveReferencePose: 0
    m_LoopTime: 0
    m_LoopBlend: 0
    m_LoopBlendOrientation: 0
    m_LoopBlendPositionY: 0
    m_LoopBlendPositionXZ: 0
    m_KeepOriginalOrientation: 0
    m_KeepOriginalPositionY: 1
    m_KeepOriginalPositionXZ: 0
    m_HeightFromFeet: 0
    m_Mirror: 0
  m_EditorCurves: []
  m_EulerEditorCurves: []
  m_HasGenericRootTransform: 0
  m_HasMotionFloatCurves: 0
  m_Events: []
