%YAML 1.1
%TAG !u! tag:unity3d.com,2011:
--- !u!114 &11400000
MonoBehaviour:
  m_ObjectHideFlags: 0
  m_CorrespondingSourceObject: {fileID: 0}
  m_PrefabInstance: {fileID: 0}
  m_PrefabAsset: {fileID: 0}
  m_GameObject: {fileID: 0}
  m_Enabled: 1
  m_EditorHideFlags: 0
  m_Script: {fileID: 11500000, guid: 6ba21ba51e9a9ed4dad2e20d02c00849, type: 3}
  m_Name: CharacterData
  m_EditorClassIdentifier: 
  Health: 100
  Armor: 15
  Damage: 15
  Range: 0.25
  MoveSpeed: 0.05
  ActionPoints: 100
